…
``` r
weighted_lm_by_year
```

    ## # A tibble: 28 × 7
    ##     year estimate std.error conf.low conf.high statistic  p.value
    ##    <dbl>    <dbl>     <dbl>    <dbl>     <dbl>     <dbl>    <dbl>
    ##  1  1974  -0.0163   0.00139  -0.0190  -0.0135     -11.7  4.44e-30
    ##  2  1976  -0.0153   0.00139  -0.0181  -0.0126     -11.0  3.87e-27
    ##  3  1977  -0.0166   0.00144  -0.0194  -0.0138     -11.5  2.25e-29
    ##  4  1980  -0.0148   0.00141  -0.0176  -0.0121     -10.5  6.15e-25
    ##  5  1982  -0.0131   0.00133  -0.0157  -0.0105      -9.84 3.04e-22
    ##  6  1984  -0.0116   0.00128  -0.0142  -0.00913     -9.10 3.14e-19
    ##  7  1985  -0.0133   0.00136  -0.0160  -0.0107      -9.77 6.89e-22
    ##  8  1987  -0.0147   0.00141  -0.0175  -0.0120     -10.4  9.36e-25
    ##  9  1988  -0.0136   0.00161  -0.0168  -0.0104      -8.42 1.45e-16
    ## 10  1989  -0.0118   0.00166  -0.0151  -0.00855     -7.11 2.26e-12
    ## # ℹ 18 more rows
…
    ## Warning: There was 1 warning in `dplyr::summarise()`.
    ## ℹ In argument: `data = list(cur_data())`.
    ## ℹ In group 1: `cohort_cut = "(1900,1904]"`.
    ## Caused by warning:
    ## ! `cur_data()` was deprecated in dplyr 1.1.0.
    ## ℹ Please use `pick()` instead.

``` r
# View the results
print(lm_health_v_age_cohorts)
```

    ## # A tibble: 25 × 18
    ##    cohort_cut  data     model    predict_20 predict_25 predict_30 predict_35
    ##    <fct>       <list>   <list>        <dbl>      <dbl>      <dbl>      <dbl>
    ##  1 (1900,1904] <tibble> <svyglm>       1.86       1.92       1.97       2.02
    ##  2 (1904,1908] <tibble> <svyglm>       2.30       2.32       2.34       2.35
    ##  3 (1908,1912] <tibble> <svyglm>       3.11       3.06       3.01       2.96
    ##  4 (1912,1915] <tibble> <svyglm>       2.68       2.68       2.67       2.67
    ##  5 (1915,1919] <tibble> <svyglm>       3.07       3.03       2.99       2.94
    ##  6 (1919,1923] <tibble> <svyglm>       3.37       3.30       3.23       3.16
    ##  7 (1923,1927] <tibble> <svyglm>       3.19       3.15       3.11       3.07
    ##  8 (1927,1931] <tibble> <svyglm>       3.31       3.26       3.21       3.16
    ##  9 (1931,1935] <tibble> <svyglm>       3.32       3.27       3.22       3.16
    ## 10 (1935,1938] <tibble> <svyglm>       3.22       3.18       3.14       3.11
    ## # ℹ 15 more rows
    ## # ℹ 11 more variables: predict_40 <dbl>, predict_45 <dbl>, predict_50 <dbl>,
    ## #   predict_55 <dbl>, predict_65 <dbl>, predict_70 <dbl>, predict_75 <dbl>,
    ## #   predict_80 <dbl>, beta <dbl>, se <dbl>, cohort_mean <dbl>
…
``` r
weighted_lm_by_cohort
```

    ## # A tibble: 25 × 8
    ##    cohort_cut  estimate std.error conf.low conf.high statistic    p.value cohort
    ##    <fct>          <dbl>     <dbl>    <dbl>     <dbl>     <dbl>      <dbl>  <dbl>
    ##  1 (1900,1904]  0.0104    0.0115   -0.0122   0.0330      0.905    3.66e-1  1902 
    ##  2 (1904,1908]  0.00337   0.00809  -0.0125   0.0193      0.417    6.77e-1  1906 
    ##  3 (1908,1912] -0.0101    0.00626  -0.0224   0.00222    -1.61     1.08e-1  1910 
    ##  4 (1912,1915] -0.00101   0.00480  -0.0104   0.00841    -0.210    8.33e-1  1914.
    ##  5 (1915,1919] -0.00836   0.00354  -0.0153  -0.00141    -2.36     1.85e-2  1917 
    ##  6 (1919,1923] -0.0139    0.00290  -0.0196  -0.00821    -4.79     1.87e-6  1921 
    ##  7 (1923,1927] -0.00831   0.00317  -0.0145  -0.00209    -2.62     8.92e-3  1925 
    ##  8 (1927,1931] -0.0101    0.00217  -0.0143  -0.00582    -4.64     3.86e-6  1929 
    ##  9 (1931,1935] -0.0100    0.00189  -0.0137  -0.00632    -5.30     1.32e-7  1933 
    ## 10 (1935,1938] -0.00768   0.00178  -0.0112  -0.00418    -4.31     1.76e-5  1936.
    ## # ℹ 15 more rows
…
``` r
# Perform linear regression of 'coef' (age coefficient) vs 'year'
lm_coef_vs_year_cohort <- lm(estimate ~ cohort, data = weighted_lm_by_cohort)

weighted_lm_by_cohort
```

    ## # A tibble: 25 × 8
    ##    cohort_cut  estimate std.error conf.low conf.high statistic    p.value cohort
    ##    <fct>          <dbl>     <dbl>    <dbl>     <dbl>     <dbl>      <dbl>  <dbl>
    ##  1 (1900,1904]  0.0104    0.0115   -0.0122   0.0330      0.905    3.66e-1  1902 
    ##  2 (1904,1908]  0.00337   0.00809  -0.0125   0.0193      0.417    6.77e-1  1906 
    ##  3 (1908,1912] -0.0101    0.00626  -0.0224   0.00222    -1.61     1.08e-1  1910 
    ##  4 (1912,1915] -0.00101   0.00480  -0.0104   0.00841    -0.210    8.33e-1  1914.
    ##  5 (1915,1919] -0.00836   0.00354  -0.0153  -0.00141    -2.36     1.85e-2  1917 
    ##  6 (1919,1923] -0.0139    0.00290  -0.0196  -0.00821    -4.79     1.87e-6  1921 
    ##  7 (1923,1927] -0.00831   0.00317  -0.0145  -0.00209    -2.62     8.92e-3  1925 
    ##  8 (1927,1931] -0.0101    0.00217  -0.0143  -0.00582    -4.64     3.86e-6  1929 
    ##  9 (1931,1935] -0.0100    0.00189  -0.0137  -0.00632    -5.30     1.32e-7  1933 
    ## 10 (1935,1938] -0.00768   0.00178  -0.0112  -0.00418    -4.31     1.76e-5  1936.
    ## # ℹ 15 more rows
…
