…
# View the results
print(lm_health_v_age_cohorts)
```

    ## # A tibble: 40 × 15
    ## # Groups:   cohort_cut [40]
    ##    cohort_cut  data     model  predict_20 predict_25 predict_30 predict_35
    ##    <fct>       <list>   <list>      <dbl>      <dbl>      <dbl>      <dbl>
    ##  1 (1953,1954] <tibble> <lm>         3.34       3.28       3.22       3.17
    ##  2 (1933,1935] <tibble> <lm>         3.39       3.34       3.28       3.22
    ##  3 (1915,1917] <tibble> <lm>         2.93       2.90       2.87       2.83
    ##  4 (1943,1945] <tibble> <lm>         3.34       3.30       3.26       3.22
    ##  5 (1925,1927] <tibble> <lm>         3.14       3.10       3.06       3.02
    ##  6 (1919,1921] <tibble> <lm>         2.90       2.87       2.85       2.83
    ##  7 (1947,1949] <tibble> <lm>         3.42       3.36       3.30       3.24
    ##  8 (1951,1953] <tibble> <lm>         3.34       3.29       3.23       3.18
    ##  9 (1949,1951] <tibble> <lm>         3.42       3.36       3.30       3.24
    ## 10 (1939,1941] <tibble> <lm>         3.47       3.41       3.34       3.27
    ## # ℹ 30 more rows
    ## # ℹ 8 more variables: predict_40 <dbl>, predict_45 <dbl>, predict_50 <dbl>,
    ## #   predict_55 <dbl>, predict_60 <dbl>, predict_65 <dbl>, beta <dbl>,
    ## #   cohort_mean <dbl>
…
